Cross-ancestry analysis of ldl cholesterol GWASs
…
Warning: The `x` argument of `as_tibble.matrix()` must have unique column names if
`.name_repair` is omitted as of tibble 2.0.0.
ℹ Using compatibility `.name_repair`.

o$Q$fdr <- p.adjust(o$Q$Qpval, "fdr")
min(o$Q$fdr)

[1] 4.551216e-109

Strong evidence of heterogeneity.

selsnpid <- subset(o$Q, p.adjust(Qpval, "bonferroni") < 0.05)$snpid
subset(o$Qj, snpid %in% selsnpid)

# A tibble: 36 × 6
        AFR          EAS      EUR     HIS    SAS snpid          
      <dbl>        <dbl>    <dbl>   <dbl>  <dbl> <chr>          
 1 3.20e-13 0.0713       6.10e- 2 0.833   0.523  1:55479967_C_T 
 2 2.23e-11 0.000955     8.31e- 2 0.194   0.445  1:55513183_C_T 
 3 2.76e- 8 0.232        1.74e- 1 0.108   0.343  1:55520212_A_G 
 4 3.82e-31 0.350        4.13e-15 0.0106  0.230  1:55549374_A_T 
 5 1.77e- 6 0.0000000161 6.63e- 1 0.0597  0.0732 1:55818788_G_T 
 6 1.12e-12 0.0443       5.15e- 2 0.759   0.842  1:56178704_A_G 
 7 3.01e- 2 0.0000108    3.10e- 2 0.00420 0.887  1:109740312_A_T
 8 8.54e-13 0.407        2.03e- 1 0.774   0.182  2:22822159_A_G 
 9 6.38e- 8 0.0316       2.98e- 1 0.955   0.151  2:24400769_A_C 
10 6.04e- 8 0.373        7.74e- 2 0.0808  0.432  2:44193502_A_G 
# ℹ 26 more rows
…
