Phenotype scaling
…
o

# A tibble: 352 × 12
   mod          pop Estim…¹ Std. …²      z   pdiff  z_m1  z_m2 z_sd1 z_sd2  x_m1
   <chr>      <dbl>   <dbl>   <dbl>  <dbl>   <dbl> <dbl> <dbl> <dbl> <dbl> <dbl>
 1 glm(y ~ x)     1 0.0886  0.00630 -0.602 2.74e-1     0     0     1     1    25
 2 glm(y ~ x)     2 0.0945  0.00754 -0.602 2.74e-1     0     0     1     1    25
 3 lm(y ~ x)      1 0.0150  0.00104 -0.433 3.32e-1     0     0     1     1    25
 4 lm(y ~ x)      2 0.0157  0.00123 -0.433 3.32e-1     0     0     1     1    25
 5 lm(x ~ g)      1 1.25    0.0598   3.33  4.37e-4     0     0     1     1    25
 6 lm(x ~ g)      2 0.987   0.0506   3.33  4.37e-4     0     0     1     1    25
 7 glm(y ~ g)     1 0.112   0.0371   0.982 1.63e-1     0     0     1     1    25
 8 glm(y ~ g)     2 0.0592  0.0383   0.982 1.63e-1     0     0     1     1    25
 9 lm 2sls        1 0.0155  0.00510  0.675 2.50e-1     0     0     1     1    25
10 lm 2sls        2 0.00997 0.00642  0.675 2.50e-1     0     0     1     1    25
# … with 342 more rows, 1 more variable: x_m2 <dbl>, and abbreviated variable
#   names ¹​Estimate, ²​`Std. Error`
…
